{
  "users": [
    {
      "id": 1,
      "name": "Petr",
      "surname": "Galimov"
    },{
      "id": 2,
      "name": "Sergey",
      "surname": "Ivanov"
    },{
      "id": 3,
      "name": "Dmitriy",
      "surname": "Petrov"
    },{
      "id": 4,
      "name": "Konstantin",
      "surname": "Kudrik"
    },{
      "id": 5,
      "name": "Egor",
      "surname": "Sarefanov"
    },{
      "id": 6,
      "name": "Sergey",
      "surname": "Nikitin"
    },{
      "id": 7,
      "name": "Anton",
      "surname": "Popov"
    },{
      "id": 7,
      "name": "Aleksander",
      "surname": "Kalif"
    },{
      "id": 8,
      "name": "Evgeniy",
      "surname": "Stoyanov"
    }
  ]
}